version 1
nodes
0 "ValveBiped.Bip01_Pelvis" -1
1 "bip_pelvis" 0
2 "bip_crotchflap_0" 1
3 "bip_hippouch_0" 1
4 "mvm" 1
5 "ValveBiped.Bip01_Spine" 0
6 "bip_spine_0" 5
7 "bip_stomachpouch_0" 6
8 "ValveBiped.Bip01_Spine1" 5
9 "bip_spine_1" 8
10 "bip_grenade_0_R_0" 9
11 "bip_grenade_0_L_0" 9
12 "ValveBiped.Bip01_Spine2" 8
13 "bip_spine_2" 12
14 "bip_grenade_1_R_0" 13
15 "bip_grenade_1_L_0" 13
16 "ValveBiped.Bip01_Spine4" 12
17 "bip_spine_3" 16
18 "bip_grenade_2_R_0" 17
19 "bip_jacketcollar_0_R" 17
20 "bip_jacketcollar_0_L" 17
21 "bip_grenade_2_L_0" 17
22 "bip_jacketcollar_0_B" 17
23 "medal_bone" 17
24 "ValveBiped.Bip01_Neck1" 16
25 "bip_neck" 24
26 "ValveBiped.Bip01_Head1" 24
27 "bip_head" 26
28 "ValveBiped.forward" 26
29 "ValveBiped.Bip01_R_Clavicle" 16
30 "bip_collar_R" 29
31 "ValveBiped.Bip01_R_UpperArm" 29
32 "bip_upperArm_R" 31
33 "ValveBiped.Bip01_R_Forearm" 31
34 "bip_lowerArm_R" 33
35 "ValveBiped.Bip01_R_Hand" 33
36 "bip_hand_R" 35
37 "ValveBiped.Anim_Attachment_RH" 35
38 "ValveBiped.Bip01_R_Finger4" 35
39 "bip_pinky_0_R" 38
40 "ValveBiped.Bip01_R_Finger41" 38
41 "bip_pinky_1_R" 40
42 "ValveBiped.Bip01_R_Finger42" 40
43 "bip_pinky_2_R" 42
44 "ValveBiped.Bip01_R_Finger3" 35
45 "bip_ring_0_R" 44
46 "ValveBiped.Bip01_R_Finger31" 44
47 "bip_ring_1_R" 46
48 "ValveBiped.Bip01_R_Finger32" 46
49 "bip_ring_2_R" 48
50 "ValveBiped.Bip01_R_Finger2" 35
51 "bip_middle_0_R" 50
52 "ValveBiped.Bip01_R_Finger21" 50
53 "bip_middle_1_R" 52
54 "ValveBiped.Bip01_R_Finger22" 52
55 "bip_middle_2_R" 54
56 "ValveBiped.Bip01_R_Finger1" 35
57 "bip_index_0_R" 56
58 "ValveBiped.Bip01_R_Finger11" 56
59 "bip_index_1_R" 58
60 "ValveBiped.Bip01_R_Finger12" 58
61 "bip_index_2_R" 60
62 "ValveBiped.Bip01_R_Finger0" 35
63 "bip_thumb_0_R" 62
64 "ValveBiped.Bip01_R_Finger01" 62
65 "bip_thumb_1_R" 64
66 "ValveBiped.Bip01_R_Finger02" 64
67 "bip_thumb_2_R" 66
68 "ValveBiped.Bip01_R_Ulna" 33
69 "hlp_forearm_R" 68
70 "ValveBiped.Bip01_L_Clavicle" 16
71 "bip_collar_L" 70
72 "ValveBiped.Bip01_L_UpperArm" 70
73 "bip_upperArm_L" 72
74 "ValveBiped.Bip01_L_Forearm" 72
75 "bip_lowerArm_L" 74
76 "weapon_targe" 75
77 "ValveBiped.Bip01_L_Hand" 74
78 "bip_hand_L" 77
79 "ValveBiped.Anim_Attachment_LH" 77
80 "ValveBiped.Bip01_L_Finger4" 77
81 "bip_pinky_0_L" 80
82 "ValveBiped.Bip01_L_Finger41" 80
83 "bip_pinky_1_L" 82
84 "ValveBiped.Bip01_L_Finger42" 82
85 "bip_pinky_2_L" 84
86 "ValveBiped.Bip01_L_Finger3" 77
87 "bip_ring_0_L" 86
88 "ValveBiped.Bip01_L_Finger31" 86
89 "bip_ring_1_L" 88
90 "ValveBiped.Bip01_L_Finger32" 88
91 "bip_ring_2_L" 90
92 "ValveBiped.Bip01_L_Finger2" 77
93 "bip_middle_0_L" 92
94 "ValveBiped.Bip01_L_Finger21" 92
95 "bip_middle_1_L" 94
96 "ValveBiped.Bip01_L_Finger22" 94
97 "bip_middle_2_L" 96
98 "ValveBiped.Bip01_L_Finger1" 77
99 "bip_index_0_L" 98
100 "ValveBiped.Bip01_L_Finger11" 98
101 "bip_index_1_L" 100
102 "ValveBiped.Bip01_L_Finger12" 100
103 "bip_index_2_L" 102
104 "ValveBiped.Bip01_L_Finger0" 77
105 "bip_thumb_0_L" 104
106 "ValveBiped.Bip01_L_Finger01" 104
107 "bip_thumb_1_L" 106
108 "ValveBiped.Bip01_L_Finger02" 106
109 "bip_thumb_2_L" 108
110 "ValveBiped.Bip01_L_Ulna" 74
111 "hlp_forearm_L" 110
112 "ValveBiped.Bip01_R_Thigh" 0
113 "bip_hip_R" 112
114 "ValveBiped.Bip01_R_Calf" 112
115 "bip_knee_R" 114
116 "ValveBiped.Bip01_R_Foot" 114
117 "bip_foot_R" 116
118 "ValveBiped.Bip01_R_Toe0" 116
119 "bip_toe_R" 118
120 "ValveBiped.Bip01_L_Thigh" 0
121 "bip_hip_L" 120
122 "ValveBiped.Bip01_L_Calf" 120
123 "bip_knee_L" 122
124 "ValveBiped.Bip01_L_Foot" 122
125 "bip_foot_L" 124
126 "ValveBiped.Bip01_L_Toe0" 124
127 "bip_toe_L" 126
end
skeleton
time 0
0  0.000000 -1.245288 48.059460  1.570796 -0.000000 0.000001
1  0.000000 0.000000 0.000000  3.012434 -0.000001 -0.000000
2  -0.000371 1.074494 -6.630992  0.012984 -3.118101 -1.569399
3  -8.530733 -0.244536 -1.908031  -0.097342 -0.165234 1.712999
4  5.789702 -2.255275 5.750524  0.032037 -0.317903 -3.133760
5  0.000000 4.167522 -0.541289  1.570795 0.086293 1.570790
6  -0.000006 -0.000001 0.000001  1.236851 -1.570791 0.026976
7  -0.000371 0.492109 -9.619195  0.013104 -2.754093 -1.570780
8  6.200801 -1.926322 -0.000037  -0.000000 0.000003 -0.029236
9  -0.000031 -0.000006 0.000002  1.574264 -1.570793 0.105259
10  -7.542027 -3.737386 -9.217500  -0.128620 1.230595 2.956619
11  8.174987 -3.638871 -9.011272  -3.013348 1.230463 0.184976
12  5.822244 0.637691 -0.000020  -0.000000 -0.000050 0.100344
13  -0.000036 -0.000009 0.000005  1.775408 -1.570743 0.002647
14  -8.427105 -4.060903 -8.032446  0.520902 1.214489 -2.783010
15  8.412488 -4.102134 -8.035301  2.614233 1.214482 -0.358571
16  5.631958 1.178582 -0.000296  0.000010 0.000057 0.194088
17  -0.000051 -0.000003 0.000003  1.879302 -1.570801 0.020070
18  -8.506478 -4.067882 -5.226488  1.123772 1.034468 -2.239874
19  -5.368890 -3.675721 -2.769769  1.072276 -0.273903 -1.709835
20  5.368890 -3.674488 -2.768531  2.069315 -0.273903 -1.431756
21  8.593741 -3.960202 -5.017137  2.023714 1.034466 -0.901725
22  -0.000000 -3.844224 3.787832  1.570794 -0.194129 -1.570783
23  1.134397 -2.648828 -8.790470  2.388338 -0.079994 0.079853
24  3.440700 1.133798 0.000017  3.141588 -0.000021 0.372995
25  -0.000057 -0.000019 -0.000003  -1.689194 1.570780 0.180971
26  3.198874 0.988869 0.000055  -0.000004 0.000013 0.302762
27  -0.000070 0.000004 -0.000002  -1.757791 1.570766 0.062717
28  2.000051 -2.999966 0.000011  -1.570800 -0.000003 -1.326434
29  1.061718 4.058794 -2.776875  1.567153 2.023840 -0.181989
30  0.000033 -0.000069 0.000016  0.476018 0.013141 -1.307786
31  7.166411 1.877752 3.819055  1.248093 0.150493 -0.693781
32  0.000082 0.000012 0.000050  0.421186 -0.000008 0.000009
33  13.552388 0.000057 0.000040  -0.000044 0.075148 -0.168883
34  0.000059 0.000036 0.000088  0.414876 0.000003 -0.000008
35  11.844439 0.000046 0.000007  -1.563666 0.106382 0.130266
36  0.000062 -0.000114 0.000039  -0.141883 0.404128 -1.733833
37  2.676081 -1.712476 -0.000039  -1.570796 -0.000004 -1.571308
38  5.953212 -2.293505 0.563415  0.445099 0.196863 -0.672756
39  0.000095 -0.000027 0.000075  -0.000085 1.633195 -1.570892
40  2.162722 0.000000 -0.000003  0.128752 0.029243 -0.486740
41  0.000098 0.000028 0.000077  0.000190 1.497215 -1.570581
42  1.396322 -0.000001 0.000006  0.000003 -0.006143 -0.244278
43  0.000093 0.000053 0.000080  0.286751 1.498444 -1.408712
44  5.822637 -1.480113 -0.733732  0.139354 0.299438 -0.532121
45  0.000102 -0.000060 0.000078  0.000028 1.841807 -1.570803
46  2.589619 -0.000006 -0.000018  0.073268 0.136636 -0.517529
47  0.000090 -0.000002 0.000098  -0.000112 1.732337 -1.570899
48  1.837143 -0.000006 0.000021  0.000009 -0.009665 -0.430794
49  0.000079 0.000036 0.000093  0.277310 1.736591 -1.087515
50  5.749885 -0.312032 -2.457191  -0.115566 0.289528 -0.538467
51  0.000094 -0.000071 0.000059  -0.000001 2.046634 -1.570779
52  3.242839 0.000012 -0.000010  0.030148 0.283422 -0.600665
53  0.000102 -0.000008 0.000095  0.000046 1.928183 -1.570783
54  2.160190 0.000001 0.000001  0.000000 -0.004466 -0.216349
55  0.000104 0.000014 0.000095  0.129588 1.929146 -1.342804
56  5.566995 0.486219 -4.577260  -0.388709 0.229403 -0.594538
57  0.000095 -0.000085 0.000025  0.000017 2.231333 -1.570786
58  2.495028 0.000013 -0.000014  -0.032140 0.356174 -0.499379
59  0.000113 -0.000031 0.000062  0.000079 2.171721 -1.570739
60  1.687234 -0.000004 -0.000024  0.000005 -0.004191 -0.244320
61  0.000118 -0.000008 0.000061  -0.077705 2.172741 -1.320501
62  1.625270 -1.462442 -3.882592  1.841238 0.799669 -0.406819
63  0.000030 0.000097 0.000045  -0.000173 -1.625862 -1.570635
64  2.926648 0.000012 0.000003  0.235517 0.012063 0.220713
65  0.000043 0.000107 0.000026  -0.000054 -1.860044 -1.570772
66  1.664745 0.000007 -0.000000  -0.000005 -0.009622 0.362882
67  0.000068 0.000081 0.000028  -0.411676 -1.863598 -1.963498
68  5.740861 0.000024 -0.000004  0.000087 -0.000000 -0.000004
69  0.181434 0.000042 0.000108  -0.000874 -1.155997 -1.570795
70  1.061675 4.058788 2.776889  -1.577181 -2.025535 -0.171579
71  0.000037 -0.000086 -0.000013  0.471435 0.013686 1.835425
72  7.180608 1.892267 -3.785078  -1.248382 -0.153554 -0.692627
73  0.000116 0.000014 -0.000049  1.153368 0.000009 -0.000026
74  13.552333 -0.000154 0.000038  -0.000669 -0.074527 -0.169170
75  0.000080 0.000018 -0.000092  1.160353 0.000012 -0.000010
76  -0.000003 -0.000002 -0.000003  -0.000007 -0.000005 1.570817
77  11.844432 -0.000002 0.000011  1.573455 -0.106751 0.134905
78  0.000073 -0.000140 -0.000003  -0.147446 0.409108 1.405399
79  2.676048 -1.712497 0.000020  1.570781 0.000003 1.570687
80  5.955105 -2.297674 -0.525153  -0.442518 -0.203744 -0.672553
81  0.000147 -0.000053 -0.000060  0.000008 1.637728 1.570798
82  2.162709 -0.000006 0.000005  -0.124949 -0.031334 -0.486591
83  0.000149 0.000021 -0.000066  0.000008 1.505001 1.570798
84  1.396414 0.000001 0.000006  -0.000002 0.004976 -0.244269
85  0.000142 0.000044 -0.000070  0.294543 1.506023 1.740579
86  5.819284 -1.476817 0.766716  -0.142313 -0.306014 -0.531437
87  0.000126 -0.000099 -0.000055  -0.000048 1.841825 1.570748
88  2.589583 0.000010 -0.000004  -0.079703 -0.136598 -0.517483
89  0.000150 -0.000021 -0.000086  0.000009 1.725918 1.570791
90  1.837174 -0.000007 -0.000003  -0.000007 0.007354 -0.430838
91  0.000149 0.000035 -0.000075  0.266498 1.729125 2.043496
92  5.739464 -0.298846 2.483120  0.126049 -0.296092 -0.537780
93  0.000144 -0.000100 -0.000037  -0.000006 2.060046 1.570775
94  3.242854 -0.000027 -0.000007  -0.031469 -0.290984 -0.597438
95  0.000160 -0.000007 -0.000085  0.000079 1.938387 1.570857
96  2.160225 -0.000015 0.000031  0.000002 0.003068 -0.216389
97  0.000151 0.000009 -0.000074  0.125498 1.939064 1.794977
98  5.547791 0.511686 4.597764  0.393920 -0.236136 -0.594138
99  0.000146 -0.000092 -0.000006  -0.000012 2.239034 1.570778
100  2.495053 0.000000 -0.000024  0.039516 -0.359863 -0.496856
101  0.000165 -0.000031 -0.000070  0.000016 2.186331 1.570810
102  1.687249 0.000009 0.000020  0.000000 0.002574 -0.244320
103  0.000166 0.000002 -0.000067  -0.080610 2.186960 1.818661
104  1.608698 -1.440302 3.897744  -1.549732 -0.805792 -0.403248
105  0.000080 0.000086 -0.000111  0.000017 -1.329139 1.570776
106  2.926664 -0.000019 -0.000005  -0.148886 0.052476 0.214751
107  0.000090 0.000078 -0.000092  0.000064 -1.483683 1.570736
108  1.664727 0.000000 0.000007  0.000010 0.011267 0.362882
109  0.000118 0.000048 -0.000101  -0.568917 -1.487011 1.333611
110  5.740849 0.000054 0.000001  0.000693 0.000000 0.000008
111  0.181454 -0.000033 -0.000098  0.000022 -1.159670 1.570782
112  -6.731911 -3.200817 1.019712  -1.564656 -0.086989 -1.636225
113  -0.000007 0.000003 -0.000000  0.201742 -0.000000 -0.000013
114  19.139214 -0.000227 -0.000004  0.005237 -0.062458 0.310748
115  -0.000014 0.000008 0.000009  1.757519 0.000001 0.000002
116  19.653929 -0.000028 -0.000002  0.003860 -0.019219 -1.264109
117  -0.000005 -0.000005 0.000033  -0.889507 -1.335025 -0.496711
118  6.225049 1.251259 -1.171571  -0.059447 -0.009818 -0.555215
119  -0.000011 -0.000023 0.000033  -1.359432 -1.321543 -0.179252
120  6.731914 -3.200859 1.019723  -1.576874 -0.086993 -1.505369
121  0.000006 -0.000001 -0.000002  1.368994 0.000003 -0.000011
122  19.139120 -0.000161 0.000002  -0.004908 0.062477 0.310750
123  0.000010 -0.000006 0.000001  1.383688 -0.000006 -0.000007
124  19.653999 -0.000050 0.000004  0.002901 0.018726 -1.264255
125  0.000016 -0.000035 0.000002  2.277874 -1.809816 -0.521593
126  6.224998 1.260169 1.162166  -0.001772 -0.003242 -0.555363
127  0.000038 -0.000022 -0.000005  1.554720 -1.806641 0.041578
time 1
0  0.000000 -1.245288 48.059460  1.570796 -0.000000 0.000001
1  0.000000 0.000000 0.000000  3.012434 -0.000001 -0.000000
2  -0.000371 1.074494 -6.630992  0.012984 -3.118101 -1.569399
3  -8.530733 -0.244536 -1.908031  -0.097342 -0.165234 1.712999
4  5.789702 -2.255275 5.750524  0.032037 -0.317903 -3.133760
5  0.000000 4.167522 -0.541289  1.570795 0.086293 1.570790
6  -0.000006 -0.000001 0.000001  1.236851 -1.570791 0.026976
7  -0.000371 0.492109 -9.619195  0.013104 -2.754093 -1.570780
8  6.200801 -1.926322 -0.000037  -0.000000 0.000003 -0.029236
9  -0.000031 -0.000006 0.000002  1.574264 -1.570793 0.105259
10  -7.542027 -3.737386 -9.217500  -0.128620 1.230595 2.956619
11  8.174987 -3.638871 -9.011272  -3.013348 1.230463 0.184976
12  5.822244 0.637691 -0.000020  -0.000000 -0.000050 0.100344
13  -0.000036 -0.000009 0.000005  1.775408 -1.570743 0.002647
14  -8.427105 -4.060903 -8.032446  0.520902 1.214489 -2.783010
15  8.412488 -4.102134 -8.035301  2.614233 1.214482 -0.358571
16  5.631958 1.178582 -0.000296  0.000010 0.000057 0.194088
17  -0.000051 -0.000003 0.000003  1.879302 -1.570801 0.020070
18  -8.506478 -4.067882 -5.226488  1.123772 1.034468 -2.239874
19  -5.368890 -3.675721 -2.769769  1.072276 -0.273903 -1.709835
20  5.368890 -3.674488 -2.768531  2.069315 -0.273903 -1.431756
21  8.593741 -3.960202 -5.017137  2.023714 1.034466 -0.901725
22  -0.000000 -3.844224 3.787832  1.570794 -0.194129 -1.570783
23  1.134397 -2.648828 -8.790470  2.388338 -0.079994 0.079853
24  3.440700 1.133798 0.000017  3.141588 -0.000021 0.372995
25  -0.000057 -0.000019 -0.000003  -1.689194 1.570780 0.180971
26  3.198874 0.988869 0.000055  -0.000004 0.000013 0.302762
27  -0.000070 0.000004 -0.000002  -1.757791 1.570766 0.062717
28  2.000051 -2.999966 0.000011  -1.570800 -0.000003 -1.326434
29  1.061718 4.058794 -2.776875  1.567153 2.023840 -0.181989
30  0.000033 -0.000069 0.000016  0.476018 0.013141 -1.307786
31  7.166411 1.877752 3.819055  1.248093 0.150493 -0.693781
32  0.000082 0.000012 0.000050  0.421186 -0.000008 0.000009
33  13.552388 0.000057 0.000040  -0.000044 0.075148 -0.168883
34  0.000059 0.000036 0.000088  0.414876 0.000003 -0.000008
35  11.844439 0.000046 0.000007  -1.563666 0.106382 0.130266
36  0.000062 -0.000114 0.000039  -0.141883 0.404128 -1.733833
37  2.676081 -1.712476 -0.000039  -1.570796 -0.000004 -1.571308
38  5.953212 -2.293505 0.563415  0.445099 0.196863 -0.672756
39  0.000095 -0.000027 0.000075  -0.000085 1.633195 -1.570892
40  2.162722 0.000000 -0.000003  0.128752 0.029243 -0.486740
41  0.000098 0.000028 0.000077  0.000190 1.497215 -1.570581
42  1.396322 -0.000001 0.000006  0.000003 -0.006143 -0.244278
43  0.000093 0.000053 0.000080  0.286751 1.498444 -1.408712
44  5.822637 -1.480113 -0.733732  0.139354 0.299438 -0.532121
45  0.000102 -0.000060 0.000078  0.000028 1.841807 -1.570803
46  2.589619 -0.000006 -0.000018  0.073268 0.136636 -0.517529
47  0.000090 -0.000002 0.000098  -0.000112 1.732337 -1.570899
48  1.837143 -0.000006 0.000021  0.000009 -0.009665 -0.430794
49  0.000079 0.000036 0.000093  0.277310 1.736591 -1.087515
50  5.749885 -0.312032 -2.457191  -0.115566 0.289528 -0.538467
51  0.000094 -0.000071 0.000059  -0.000001 2.046634 -1.570779
52  3.242839 0.000012 -0.000010  0.030148 0.283422 -0.600665
53  0.000102 -0.000008 0.000095  0.000046 1.928183 -1.570783
54  2.160190 0.000001 0.000001  0.000000 -0.004466 -0.216349
55  0.000104 0.000014 0.000095  0.129588 1.929146 -1.342804
56  5.566995 0.486219 -4.577260  -0.388709 0.229403 -0.594538
57  0.000095 -0.000085 0.000025  0.000017 2.231333 -1.570786
58  2.495028 0.000013 -0.000014  -0.032140 0.356174 -0.499379
59  0.000113 -0.000031 0.000062  0.000079 2.171721 -1.570739
60  1.687234 -0.000004 -0.000024  0.000005 -0.004191 -0.244320
61  0.000118 -0.000008 0.000061  -0.077705 2.172741 -1.320501
62  1.625270 -1.462442 -3.882592  1.841238 0.799669 -0.406819
63  0.000030 0.000097 0.000045  -0.000173 -1.625862 -1.570635
64  2.926648 0.000012 0.000003  0.235517 0.012063 0.220713
65  0.000043 0.000107 0.000026  -0.000054 -1.860044 -1.570772
66  1.664745 0.000007 -0.000000  -0.000005 -0.009622 0.362882
67  0.000068 0.000081 0.000028  -0.411676 -1.863598 -1.963498
68  5.740861 0.000024 -0.000004  0.000087 -0.000000 -0.000004
69  0.181434 0.000042 0.000108  -0.000874 -1.155997 -1.570795
70  1.061675 4.058788 2.776889  -1.577181 -2.025535 -0.171579
71  0.000037 -0.000086 -0.000013  0.471435 0.013686 1.835425
72  7.180608 1.892267 -3.785078  -1.248382 -0.153554 -0.692627
73  0.000116 0.000014 -0.000049  1.153368 0.000009 -0.000026
74  13.552333 -0.000154 0.000038  -0.000669 -0.074527 -0.169170
75  0.000080 0.000018 -0.000092  1.160353 0.000012 -0.000010
76  -0.000003 -0.000002 -0.000003  -0.000007 -0.000005 1.570817
77  11.844432 -0.000002 0.000011  1.573455 -0.106751 0.134905
78  0.000073 -0.000140 -0.000003  -0.147446 0.409108 1.405399
79  2.676048 -1.712497 0.000020  1.570781 0.000003 1.570687
80  5.955105 -2.297674 -0.525153  -0.442518 -0.203744 -0.672553
81  0.000147 -0.000053 -0.000060  0.000008 1.637728 1.570798
82  2.162709 -0.000006 0.000005  -0.124949 -0.031334 -0.486591
83  0.000149 0.000021 -0.000066  0.000008 1.505001 1.570798
84  1.396414 0.000001 0.000006  -0.000002 0.004976 -0.244269
85  0.000142 0.000044 -0.000070  0.294543 1.506023 1.740579
86  5.819284 -1.476817 0.766716  -0.142313 -0.306014 -0.531437
87  0.000126 -0.000099 -0.000055  -0.000048 1.841825 1.570748
88  2.589583 0.000010 -0.000004  -0.079703 -0.136598 -0.517483
89  0.000150 -0.000021 -0.000086  0.000009 1.725918 1.570791
90  1.837174 -0.000007 -0.000003  -0.000007 0.007354 -0.430838
91  0.000149 0.000035 -0.000075  0.266498 1.729125 2.043496
92  5.739464 -0.298846 2.483120  0.126049 -0.296092 -0.537780
93  0.000144 -0.000100 -0.000037  -0.000006 2.060046 1.570775
94  3.242854 -0.000027 -0.000007  -0.031469 -0.290984 -0.597438
95  0.000160 -0.000007 -0.000085  0.000079 1.938387 1.570857
96  2.160225 -0.000015 0.000031  0.000002 0.003068 -0.216389
97  0.000151 0.000009 -0.000074  0.125498 1.939064 1.794977
98  5.547791 0.511686 4.597764  0.393920 -0.236136 -0.594138
99  0.000146 -0.000092 -0.000006  -0.000012 2.239034 1.570778
100  2.495053 0.000000 -0.000024  0.039516 -0.359863 -0.496856
101  0.000165 -0.000031 -0.000070  0.000016 2.186331 1.570810
102  1.687249 0.000009 0.000020  0.000000 0.002574 -0.244320
103  0.000166 0.000002 -0.000067  -0.080610 2.186960 1.818661
104  1.608698 -1.440302 3.897744  -1.549732 -0.805792 -0.403248
105  0.000080 0.000086 -0.000111  0.000017 -1.329139 1.570776
106  2.926664 -0.000019 -0.000005  -0.148886 0.052476 0.214751
107  0.000090 0.000078 -0.000092  0.000064 -1.483683 1.570736
108  1.664727 0.000000 0.000007  0.000010 0.011267 0.362882
109  0.000118 0.000048 -0.000101  -0.568917 -1.487011 1.333611
110  5.740849 0.000054 0.000001  0.000693 0.000000 0.000008
111  0.181454 -0.000033 -0.000098  0.000022 -1.159670 1.570782
112  -6.731911 -3.200817 1.019712  -1.564656 -0.086989 -1.636225
113  -0.000007 0.000003 -0.000000  0.201742 -0.000000 -0.000013
114  19.139214 -0.000227 -0.000004  0.005237 -0.062458 0.310748
115  -0.000014 0.000008 0.000009  1.757519 0.000001 0.000002
116  19.653929 -0.000028 -0.000002  0.003860 -0.019219 -1.264109
117  -0.000005 -0.000005 0.000033  -0.889507 -1.335025 -0.496711
118  6.225049 1.251259 -1.171571  -0.059447 -0.009818 -0.555215
119  -0.000011 -0.000023 0.000033  -1.359432 -1.321543 -0.179252
120  6.731914 -3.200859 1.019723  -1.576874 -0.086993 -1.505369
121  0.000006 -0.000001 -0.000002  1.368994 0.000003 -0.000011
122  19.139120 -0.000161 0.000002  -0.004908 0.062477 0.310750
123  0.000010 -0.000006 0.000001  1.383688 -0.000006 -0.000007
124  19.653999 -0.000050 0.000004  0.002901 0.018726 -1.264255
125  0.000016 -0.000035 0.000002  2.277874 -1.809816 -0.521593
126  6.224998 1.260169 1.162166  -0.001772 -0.003242 -0.555363
127  0.000038 -0.000022 -0.000005  1.554720 -1.806641 0.041578
end
