// Created by Crowbar 0.62
version 1
nodes
  0 "root" -1
  1 "bip_collar_L" 0
  2 "bip_collar_R" 0
  3 "bip_upperArm_L" 1
  4 "bip_upperArm_R" 2
  5 "bip_lowerArm_L" 3
  6 "bip_lowerArm_R" 4
  7 "bip_hand_L" 5
  8 "bip_hand_R" 6
  9 "effect_hand_L" 7
  10 "effect_hand_R" 8
  11 "vm_weapon_bone" 8
  12 "vm_weapon_bone_1" 8
  13 "vm_weapon_bone_2" 8
  14 "vm_weapon_bone_3" 8
  15 "vm_weapon_bone_4" 8
  16 "vm_weapon_bone_5" 8
  17 "vm_weapon_bone_6" 8
  18 "vm_weapon_bone_7" 8
  19 "vm_weapon_bone_L" 7
  20 "vm_weapon_bone_L_1" 7
  21 "vm_weapon_bone_L_2" 7
  22 "weapon_bone" 8
  23 "weapon_bone_1" 8
  24 "weapon_bone_2" 8
  25 "weapon_bone_3" 8
  26 "weapon_bone_4" 8
  27 "weapon_bone_L" 7
  28 "bip_thumb_0_L" 7
  29 "bip_thumb_0_R" 8
  30 "bip_thumb_1_L" 28
  31 "bip_thumb_1_R" 29
  32 "bip_thumb_2_L" 30
  33 "bip_thumb_2_R" 31
  34 "bip_index_0_L" 7
  35 "bip_index_0_R" 8
  36 "bip_index_1_L" 34
  37 "bip_index_1_R" 35
  38 "bip_index_2_L" 36
  39 "bip_index_2_R" 37
  40 "bip_middle_0_L" 7
  41 "bip_middle_0_R" 8
  42 "bip_middle_1_L" 40
  43 "bip_middle_1_R" 41
  44 "bip_middle_2_L" 42
  45 "bip_middle_2_R" 43
  46 "bip_ring_0_L" 7
  47 "bip_ring_0_R" 8
  48 "bip_ring_1_L" 46
  49 "bip_ring_1_R" 47
  50 "bip_ring_2_L" 48
  51 "bip_ring_2_R" 49
  52 "bip_pinky_0_L" 7
  53 "bip_pinky_0_R" 8
  54 "bip_pinky_1_L" 52
  55 "bip_pinky_1_R" 53
  56 "bip_pinky_2_L" 54
  57 "bip_pinky_2_R" 55
end
skeleton
  time 0
    0 0.000000 5.546875 67.250000 -1.098294 -0.000003 -0.000006
    1 1.452850 -2.069668 -2.738789 -3.028898 -0.483312 -1.252149
    2 -1.452850 -2.069668 -2.738789 0.112695 0.483312 1.252149
    3 -0.000008 -7.952557 0.000007 0.174315 -0.126633 -1.076638
    4 -0.000008 7.952559 -0.000007 0.174315 -0.126633 -1.076638
    5 -0.000050 -13.116791 -0.000004 -0.570538 0.000000 0.000000
    6 0.000050 13.116791 0.000000 -0.570538 0.000000 0.000000
    7 0.000025 -9.515556 0.000019 0.000000 0.000000 0.000000
    8 -0.000015 9.515545 -0.000021 0.000000 0.000000 0.000000
    9 -1.809242 -4.108723 -1.394463 0.099582 0.027844 3.110784
    10 1.809237 4.108730 1.394468 -0.099578 -0.027836 -0.030810
    11 4.309969 4.998432 1.278727 -2.821624 -0.044212 -0.232817
    12 4.673349 6.637474 1.834414 -2.821624 -0.044212 -0.232817
    13 5.084749 8.493126 2.463542 -2.821624 -0.044212 -0.232817
    14 5.545727 10.572374 3.168476 -2.821624 -0.044212 -0.232817
    15 5.879047 12.075850 3.678201 -2.821624 -0.044212 -0.232817
    16 6.197557 13.512493 4.165269 -2.821624 -0.044212 -0.232817
    17 6.473555 14.757397 4.587333 -2.821624 -0.044212 -0.232817
    18 6.761151 16.054630 5.027138 -2.821624 -0.044212 -0.232817
    19 -3.983135 -5.075932 -1.263869 -2.821625 -0.044212 -0.232817
    20 -4.344952 -6.707912 -1.817163 -2.821625 -0.044212 -0.232817
    21 -4.719456 -8.397146 -2.389868 -2.821625 -0.044212 -0.232817
    22 2.824774 5.350597 1.211198 -2.821624 -0.044212 -0.232817
    23 3.188154 6.989639 1.766888 -2.821624 -0.044212 -0.232817
    24 3.599554 8.845291 2.396014 -2.821624 -0.044212 -0.232817
    25 4.060534 10.924540 3.100948 -2.821624 -0.044212 -0.232817
    26 4.393854 12.428017 3.610673 -2.821624 -0.044212 -0.232817
    27 -2.824749 -5.350605 -1.211199 -2.821625 -0.044212 -0.232817
    28 -1.634506 -2.285500 1.205043 -0.311923 -0.241141 -0.344260
    29 1.634531 2.285519 -1.205033 -0.311922 -0.241141 -0.344260
    30 0.004951 -2.025696 0.001392 0.556181 0.039275 -0.063080
    31 -0.004955 2.025673 -0.001387 0.556181 0.039275 -0.063080
    32 0.135680 -2.001026 0.352961 -0.141612 0.000000 0.000000
    33 -0.135728 2.001026 -0.352958 -0.141612 0.000000 0.000000
    34 -0.148579 -6.673740 0.890838 1.600575 1.319389 1.138634
    35 0.148573 6.673695 -0.890849 1.600577 1.319388 1.138635
    36 -0.000002 -2.195583 0.000062 0.404373 0.000000 0.000000
    37 -0.000002 2.195660 -0.000046 0.404372 0.000000 0.000000
    38 0.000005 -1.376019 0.000024 0.235395 0.000000 0.000000
    39 -0.000004 1.375946 -0.000007 0.235395 0.000000 0.000000
    40 0.238197 -6.687912 -0.761861 2.147599 1.305757 1.600047
    41 -0.238180 6.687923 0.761868 2.147601 1.305757 1.600048
    42 -0.000016 -2.739128 0.000045 0.455221 0.000000 0.000000
    43 0.000007 2.739147 -0.000034 0.455220 0.000000 0.000000
    44 0.000008 -1.769493 -0.000052 0.143001 0.000000 0.000000
    45 0.000003 1.769405 0.000054 0.143000 0.000000 0.000000
    46 0.025738 -6.615700 -2.439180 2.453843 1.309090 1.827801
    47 -0.025736 6.615688 2.439178 2.453844 1.309090 1.827802
    48 0.000006 -2.042831 -0.000033 0.357113 0.000001 0.000000
    49 0.000003 2.042812 0.000005 0.357114 0.000000 0.000000
    50 0.000001 -1.593201 0.000015 0.242435 0.000000 0.000000
    51 -0.000008 1.593193 0.000006 0.242435 0.000000 0.000000
    52 -0.481016 -6.082798 -3.741684 2.646163 1.234020 1.971482
    53 0.481064 6.082821 3.741702 2.646163 1.234020 1.971482
    54 0.000039 -1.275295 -0.000084 0.169588 0.000000 0.000000
    55 -0.000016 1.275185 0.000056 0.169588 0.000000 0.000000
    56 -0.000013 -1.304108 -0.000051 0.397577 0.000000 0.000000
    57 0.000000 1.304218 0.000031 0.397577 0.000000 0.000000
end
