// Created by Crowbar 0.62

$modelname "player\arms\tf2_pm\c_medic_arms.mdl"

$bodygroup "body"
{
	studio "medic.smd"
}

$surfaceprop "default"

$contents "solid"

$illumposition 0 51.727 -1.386

$cdmaterials "models\player\medic\"
$cdmaterials ""

$texturegroup "skinfamilies"
{
	{ "medic_hands_red"  "medic_red"  }
	{ "medic_hands_blue" "medic_blue" }
	{ "medic_hands_color" "medic_color" }
	{ "medic_hands_red"  "medic_red"  }
	{ "medic_hands_blue" "medic_blue" }
}

$proceduralbones "c_arms_combine.vrd"

$sequence "c_medic_arms" {
	"medic.smd"
	fadein 0.2
	fadeout 0.2
	fps 30
}

