version 1
nodes
0 "ValveBiped.Bip01_Pelvis" -1
1 "ValveBiped.Bip01_L_Thigh" 0
2 "ValveBiped.Bip01_L_Calf" 1
3 "ValveBiped.Bip01_L_Foot" 2
4 "ValveBiped.Bip01_L_Toe0" 3
5 "ValveBiped.Bip01_R_Thigh" 0
6 "ValveBiped.Bip01_R_Calf" 5
7 "ValveBiped.Bip01_R_Foot" 6
8 "ValveBiped.Bip01_R_Toe0" 7
9 "ValveBiped.Bip01_Spine" 0
10 "ValveBiped.Bip01_Spine1" 9
11 "ValveBiped.Bip01_Spine2" 10
12 "ValveBiped.Bip01_Spine4" 11
13 "ValveBiped.Bip01_Neck1" 12
14 "ValveBiped.Bip01_Head1" 13
15 "ValveBiped.Bip01_L_Clavicle" 12
16 "ValveBiped.Bip01_L_UpperArm" 15
17 "ValveBiped.Bip01_L_Forearm" 16
18 "ValveBiped.Bip01_L_Hand" 17
19 "ValveBiped.Bip01_L_Finger2" 18
20 "ValveBiped.Bip01_L_Finger21" 19
21 "ValveBiped.Bip01_L_Finger22" 20
22 "ValveBiped.Bip01_L_Finger1" 18
23 "ValveBiped.Bip01_L_Finger11" 22
24 "ValveBiped.Bip01_L_Finger12" 23
25 "ValveBiped.Bip01_L_Finger0" 18
26 "ValveBiped.Bip01_L_Finger01" 25
27 "ValveBiped.Bip01_L_Finger02" 26
28 "ValveBiped.Bip01_L_Finger4" 18
29 "ValveBiped.Bip01_L_Finger41" 28
30 "ValveBiped.Bip01_L_Finger42" 29
31 "ValveBiped.Bip01_L_Finger3" 18
32 "ValveBiped.Bip01_L_Finger31" 31
33 "ValveBiped.Bip01_L_Finger32" 32
34 "ValveBiped.Bip01_R_Clavicle" 12
35 "ValveBiped.Bip01_R_UpperArm" 34
36 "ValveBiped.Bip01_R_Forearm" 35
37 "ValveBiped.Bip01_R_Hand" 36
38 "ValveBiped.Bip01_R_Finger2" 37
39 "ValveBiped.Bip01_R_Finger21" 38
40 "ValveBiped.Bip01_R_Finger22" 39
41 "ValveBiped.Bip01_R_Finger1" 37
42 "ValveBiped.Bip01_R_Finger11" 41
43 "ValveBiped.Bip01_R_Finger12" 42
44 "ValveBiped.Bip01_R_Finger0" 37
45 "ValveBiped.Bip01_R_Finger01" 44
46 "ValveBiped.Bip01_R_Finger02" 45
47 "ValveBiped.Bip01_R_Finger4" 37
48 "ValveBiped.Bip01_R_Finger41" 47
49 "ValveBiped.Bip01_R_Finger42" 48
50 "ValveBiped.Bip01_R_Finger3" 37
51 "ValveBiped.Bip01_R_Finger31" 50
52 "ValveBiped.Bip01_R_Finger32" 51
end
skeleton
time 0
0  0.000000 -2.265002 41.365337  1.570796 -0.000000 0.000001
1  4.588552 -3.243042 1.516179  -1.573580 -0.032295 -1.494666
2  15.993513 0.000000 0.000000  -0.004925 0.060020 0.291344
3  17.104242 -0.000002 -0.000000  0.008799 0.017186 -1.002420
4  8.176746 -2.309207 2.174598  -0.001050 -0.003488 -0.555366
5  -4.588551 -3.243035 1.516176  -1.567994 -0.032296 -1.646927
6  15.993544 -0.000000 -0.000000  0.005225 -0.060014 0.291346
7  17.104216 0.000001 0.000000  -0.002131 -0.019446 -1.002273
8  8.191655 -2.151442 -2.050406  -0.061128 0.006497 -0.556039
9  0.000000 4.095882 -0.339867  1.570795 0.086294 1.570791
10  6.774745 -1.548913 -0.000037  -0.000000 0.000001 -0.029229
11  5.956551 -0.040535 -0.000025  0.000000 -0.000044 0.100326
12  4.694413 -0.298028 -0.000225  0.000009 0.000052 0.194100
13  3.282990 1.486229 0.000016  3.141588 -0.000020 0.372984
14  3.033130 1.571874 0.000050  -0.000004 0.000010 0.302763
15  1.010029 0.759568 3.535882  -1.577189 -2.025535 -0.171569
16  6.765117 -0.097226 -0.294289  -1.690503 0.061440 -0.626428
17  11.405783 0.000000 0.000001  -0.001464 0.081035 -0.473810
18  12.199315 -0.000001 0.000002  1.573453 -0.106734 0.134901
19  4.604731 0.056189 2.210894  0.084477 -0.074306 -0.324806
20  3.666681 0.000000 0.000002  -0.026295 -0.018936 -0.821957
21  1.986107 0.000002 -0.000002  0.000000 0.003076 -0.216389
22  4.620191 -0.064563 3.998706  0.341068 -0.128928 -0.343521
23  2.662799 -0.000002 0.000001  0.077044 -0.088884 -0.746702
24  1.826839 -0.000000 -0.000002  -0.000002 0.002593 -0.244320
25  1.526391 -2.495089 4.052876  -1.441895 -0.608941 -0.616507
26  1.821839 0.000003 0.000000  -0.165650 -0.050223 0.297129
27  1.324847 -0.000001 0.000000  0.000011 0.011266 0.362866
28  5.131337 -0.145870 -1.431640  -0.461343 0.006090 -0.542520
29  2.352100 0.000000 -0.000000  -0.130947 0.201750 -0.531561
30  1.353820 0.000003 -0.000001  -0.000006 0.004979 -0.244270
31  5.230095 0.347279 0.361603  -0.138071 -0.019182 -0.556250
32  2.749707 -0.000000 0.000000  -0.071780 0.011838 -0.482137
33  1.753655 0.000000 0.000000  0.000000 0.007356 -0.430826
34  1.010044 0.759579 -3.535876  1.567159 2.023839 -0.181982
35  6.763532 -0.108800 0.325108  1.690221 -0.064742 -0.628311
36  11.405696 -0.000000 -0.000002  0.000647 -0.079428 -0.474063
37  12.199285 0.000000 0.000003  -1.563667 0.106377 0.130253
38  3.841737 2.016092 -0.432042  -0.077000 -0.013325 -0.320965
39  3.666620 -0.000000 0.000001  0.029441 0.065696 -0.576336
40  2.728436 -0.000002 0.000001  -0.000001 -0.004460 -0.216349
41  3.705962 1.067173 -2.400377  -0.276461 0.008076 -0.095148
42  3.081716 -0.000000 0.000000  -0.051981 0.087981 -0.639176
43  2.117360 -0.000001 0.000000  0.000003 -0.004203 -0.244312
44  0.871037 -1.954688 -3.252756  1.858844 0.227993 -0.276089
45  1.821834 0.000001 0.000003  0.262618 0.069726 0.293278
46  1.324851 0.000003 -0.000002  -0.000005 -0.009622 0.362884
47  3.711678 0.917478 2.647511  0.473646 -0.152773 -0.317795
48  2.352124 -0.000001 0.000001  0.132557 -0.226819 -0.522167
49  1.353800 -0.000002 -0.000001  0.000005 -0.006133 -0.244287
50  3.877526 1.033466 1.512758  0.177692 -0.029203 -0.162873
51  2.398306 0.000000 -0.000000  0.093061 -0.045999 -0.690629
52  2.256761 0.000001 0.000001  0.000004 -0.009661 -0.430790
time 1
0  0.000000 -2.265002 41.365337  1.570796 -0.000000 0.000001
1  4.588552 -3.243042 1.516179  -1.573580 -0.032295 -1.494666
2  15.993513 0.000000 0.000000  -0.004925 0.060020 0.291344
3  17.104242 -0.000002 -0.000000  0.008799 0.017186 -1.002420
4  8.176746 -2.309207 2.174598  -0.001050 -0.003488 -0.555366
5  -4.588551 -3.243035 1.516176  -1.567994 -0.032296 -1.646927
6  15.993544 -0.000000 -0.000000  0.005225 -0.060014 0.291346
7  17.104216 0.000001 0.000000  -0.002131 -0.019446 -1.002273
8  8.191655 -2.151442 -2.050406  -0.061128 0.006497 -0.556039
9  0.000000 4.095882 -0.339867  1.570795 0.086294 1.570791
10  6.774745 -1.548913 -0.000037  -0.000000 0.000001 -0.029229
11  5.956551 -0.040535 -0.000025  0.000000 -0.000044 0.100326
12  4.694413 -0.298028 -0.000225  0.000009 0.000052 0.194100
13  3.282990 1.486229 0.000016  3.141588 -0.000020 0.372984
14  3.033130 1.571874 0.000050  -0.000004 0.000010 0.302763
15  1.010029 0.759568 3.535882  -1.577189 -2.025535 -0.171569
16  6.765117 -0.097226 -0.294289  -1.690503 0.061440 -0.626428
17  11.405783 0.000000 0.000001  -0.001464 0.081035 -0.473810
18  12.199315 -0.000001 0.000002  1.573453 -0.106734 0.134901
19  4.604731 0.056189 2.210894  0.084477 -0.074306 -0.324806
20  3.666681 0.000000 0.000002  -0.026295 -0.018936 -0.821957
21  1.986107 0.000002 -0.000002  0.000000 0.003076 -0.216389
22  4.620191 -0.064563 3.998706  0.341068 -0.128928 -0.343521
23  2.662799 -0.000002 0.000001  0.077044 -0.088884 -0.746702
24  1.826839 -0.000000 -0.000002  -0.000002 0.002593 -0.244320
25  1.526391 -2.495089 4.052876  -1.441895 -0.608941 -0.616507
26  1.821839 0.000003 0.000000  -0.165650 -0.050223 0.297129
27  1.324847 -0.000001 0.000000  0.000011 0.011266 0.362866
28  5.131337 -0.145870 -1.431640  -0.461343 0.006090 -0.542520
29  2.352100 0.000000 -0.000000  -0.130947 0.201750 -0.531561
30  1.353820 0.000003 -0.000001  -0.000006 0.004979 -0.244270
31  5.230095 0.347279 0.361603  -0.138071 -0.019182 -0.556250
32  2.749707 -0.000000 0.000000  -0.071780 0.011838 -0.482137
33  1.753655 0.000000 0.000000  0.000000 0.007356 -0.430826
34  1.010044 0.759579 -3.535876  1.567159 2.023839 -0.181982
35  6.763532 -0.108800 0.325108  1.690221 -0.064742 -0.628311
36  11.405696 -0.000000 -0.000002  0.000647 -0.079428 -0.474063
37  12.199285 0.000000 0.000003  -1.563667 0.106377 0.130253
38  3.841737 2.016092 -0.432042  -0.077000 -0.013325 -0.320965
39  3.666620 -0.000000 0.000001  0.029441 0.065696 -0.576336
40  2.728436 -0.000002 0.000001  -0.000001 -0.004460 -0.216349
41  3.705962 1.067173 -2.400377  -0.276461 0.008076 -0.095148
42  3.081716 -0.000000 0.000000  -0.051981 0.087981 -0.639176
43  2.117360 -0.000001 0.000000  0.000003 -0.004203 -0.244312
44  0.871037 -1.954688 -3.252756  1.858844 0.227993 -0.276089
45  1.821834 0.000001 0.000003  0.262618 0.069726 0.293278
46  1.324851 0.000003 -0.000002  -0.000005 -0.009622 0.362884
47  3.711678 0.917478 2.647511  0.473646 -0.152773 -0.317795
48  2.352124 -0.000001 0.000001  0.132557 -0.226819 -0.522167
49  1.353800 -0.000002 -0.000001  0.000005 -0.006133 -0.244287
50  3.877526 1.033466 1.512758  0.177692 -0.029203 -0.162873
51  2.398306 0.000000 -0.000000  0.093061 -0.045999 -0.690629
52  2.256761 0.000001 0.000001  0.000004 -0.009661 -0.430790
end
