version 1
nodes
0 "ValveBiped.Bip01_Pelvis" -1
1 "ValveBiped.Bip01_L_Thigh" 0
2 "ValveBiped.Bip01_L_Calf" 1
3 "ValveBiped.Bip01_L_Foot" 2
4 "ValveBiped.Bip01_L_Toe0" 3
5 "ValveBiped.Bip01_R_Thigh" 0
6 "ValveBiped.Bip01_R_Calf" 5
7 "ValveBiped.Bip01_R_Foot" 6
8 "ValveBiped.Bip01_R_Toe0" 7
9 "ValveBiped.Bip01_Spine" 0
10 "ValveBiped.Bip01_Spine1" 9
11 "ValveBiped.Bip01_Spine2" 10
12 "ValveBiped.Bip01_Spine4" 11
13 "ValveBiped.Bip01_Neck1" 12
14 "ValveBiped.Bip01_Head1" 13
15 "ValveBiped.Bip01_L_Clavicle" 12
16 "ValveBiped.Bip01_L_UpperArm" 15
17 "ValveBiped.Bip01_L_Forearm" 16
18 "ValveBiped.Bip01_L_Hand" 17
19 "ValveBiped.Bip01_L_Finger2" 18
20 "ValveBiped.Bip01_L_Finger21" 19
21 "ValveBiped.Bip01_L_Finger22" 20
22 "ValveBiped.Bip01_L_Finger1" 18
23 "ValveBiped.Bip01_L_Finger11" 22
24 "ValveBiped.Bip01_L_Finger12" 23
25 "ValveBiped.Bip01_L_Finger0" 18
26 "ValveBiped.Bip01_L_Finger01" 25
27 "ValveBiped.Bip01_L_Finger02" 26
28 "ValveBiped.Bip01_L_Finger4" 18
29 "ValveBiped.Bip01_L_Finger41" 28
30 "ValveBiped.Bip01_L_Finger42" 29
31 "ValveBiped.Bip01_L_Finger3" 18
32 "ValveBiped.Bip01_L_Finger31" 31
33 "ValveBiped.Bip01_L_Finger32" 32
34 "ValveBiped.Bip01_R_Clavicle" 12
35 "ValveBiped.Bip01_R_UpperArm" 34
36 "ValveBiped.Bip01_R_Forearm" 35
37 "ValveBiped.Bip01_R_Hand" 36
38 "ValveBiped.Bip01_R_Finger2" 37
39 "ValveBiped.Bip01_R_Finger21" 38
40 "ValveBiped.Bip01_R_Finger22" 39
41 "ValveBiped.Bip01_R_Finger1" 37
42 "ValveBiped.Bip01_R_Finger11" 41
43 "ValveBiped.Bip01_R_Finger12" 42
44 "ValveBiped.Bip01_R_Finger0" 37
45 "ValveBiped.Bip01_R_Finger01" 44
46 "ValveBiped.Bip01_R_Finger02" 45
47 "ValveBiped.Bip01_R_Finger4" 37
48 "ValveBiped.Bip01_R_Finger41" 47
49 "ValveBiped.Bip01_R_Finger42" 48
50 "ValveBiped.Bip01_R_Finger3" 37
51 "ValveBiped.Bip01_R_Finger31" 50
52 "ValveBiped.Bip01_R_Finger32" 51
end
skeleton
time 0
0  0.000000 -0.512871 47.645508  1.570796 -0.000000 0.000001
1  5.201797 -5.114525 0.766608  -1.568810 0.024413 -1.479118
2  18.600555 0.000000 0.000000  -0.004977 0.048272 0.186844
3  18.446095 -0.000001 0.000000  0.008799 0.017186 -1.002421
4  8.306994 -0.806314 1.722652  -0.001050 -0.003488 -0.555366
5  -5.201800 -5.114502 0.766600  -1.572817 0.024416 -1.662473
6  18.600534 0.000000 0.000001  0.005151 -0.048280 0.186841
7  18.446125 -0.000000 -0.000000  -0.002131 -0.019446 -1.002273
8  8.303179 -0.819150 -1.734995  -0.061128 0.006497 -0.556039
9  0.000001 5.625576 -1.073926  1.570795 0.086294 1.570791
10  5.338982 -0.734242 -0.000029  -0.000000 0.000001 -0.029229
11  6.197228 0.232997 -0.000026  0.000000 -0.000044 0.100326
12  5.795674 -0.254150 -0.000278  0.000009 0.000052 0.194100
13  2.815575 -0.025129 0.000013  3.141588 -0.000020 0.372984
14  2.588265 0.997216 0.000042  -0.000004 0.000010 0.302763
15  -0.231739 0.701459 3.712229  -1.577189 -2.025535 -0.171569
16  5.532493 0.597144 -0.584292  -1.702108 0.058121 -0.685172
17  12.121807 -0.000000 -0.000001  -0.001267 0.044063 -0.395914
18  14.193281 0.000001 0.000003  1.573453 -0.106734 0.134901
19  5.698851 -0.410121 0.611114  0.119916 0.043440 -0.491687
20  2.810285 0.000001 0.000000  -0.030864 -0.089935 -0.561607
21  2.500324 0.000001 0.000001  0.000000 0.003076 -0.216389
22  5.076329 -0.463657 2.255294  0.374354 -0.023836 -0.464274
23  2.789351 -0.000001 0.000001  0.069008 -0.128810 -0.692747
24  1.804708 0.000001 -0.000001  -0.000002 0.002593 -0.244320
25  2.107970 -2.316336 2.352855  -1.564314 -0.324081 -0.484798
26  2.049990 -0.000004 -0.000001  -0.118202 -0.007804 0.109864
27  1.291401 0.000000 0.000001  0.000011 0.011266 0.362866
28  4.893167 -0.417919 -2.567149  -0.471315 0.161749 -0.572847
29  2.339789 -0.000003 -0.000000  -0.122731 0.204772 -0.495369
30  1.654036 0.000000 0.000000  -0.000006 0.004979 -0.244270
31  5.516239 -0.788999 -1.161416  -0.147067 0.025713 -0.501609
32  2.377277 0.000001 -0.000002  -0.089518 0.037301 -0.602830
33  2.165986 -0.000001 -0.000001  0.000000 0.007356 -0.430826
34  -0.231688 0.701463 -3.712231  1.567159 2.023839 -0.181982
35  5.530751 0.587480 0.609938  1.701586 -0.061228 -0.687057
36  12.121791 -0.000000 -0.000003  0.000473 -0.042544 -0.396071
37  14.193327 -0.000000 0.000003  -1.563667 0.106377 0.130253
38  5.706195 -0.410599 -0.536821  -0.109537 -0.057629 -0.491109
39  2.810350 0.000000 -0.000000  0.029661 0.084459 -0.562383
40  2.500295 -0.000000 -0.000001  -0.000001 -0.004460 -0.216349
41  5.104480 -0.475351 -2.188288  -0.370387 0.009655 -0.463707
42  2.789338 0.000003 0.000000  -0.059558 0.126091 -0.693170
43  1.804701 -0.000003 -0.000001  0.000003 -0.004203 -0.244312
44  2.138504 -2.330493 -2.310869  1.806625 0.309894 -0.484211
45  2.049996 -0.000001 0.000001  0.176721 0.033869 0.104840
46  1.291430 -0.000000 0.000000  -0.000005 -0.009622 0.362884
47  4.860801 -0.397873 2.631070  0.474848 -0.175880 -0.572514
48  2.339707 0.000000 0.000002  0.125598 -0.205817 -0.494896
49  1.654017 0.000001 -0.000001  0.000005 -0.006133 -0.244287
50  5.501599 -0.777866 1.235746  0.143645 -0.039900 -0.501052
51  2.377288 0.000000 0.000001  0.082207 -0.035223 -0.602938
52  2.165989 0.000002 0.000000  0.000005 -0.009661 -0.430790
time 1
0  0.000000 -0.512871 47.645508  1.570796 -0.000000 0.000001
1  5.201797 -5.114525 0.766608  -1.568810 0.024413 -1.479118
2  18.600555 0.000000 0.000000  -0.004977 0.048272 0.186844
3  18.446095 -0.000001 0.000000  0.008799 0.017186 -1.002421
4  8.306994 -0.806314 1.722652  -0.001050 -0.003488 -0.555366
5  -5.201800 -5.114502 0.766600  -1.572817 0.024416 -1.662473
6  18.600534 0.000000 0.000001  0.005151 -0.048280 0.186841
7  18.446125 -0.000000 -0.000000  -0.002131 -0.019446 -1.002273
8  8.303179 -0.819150 -1.734995  -0.061128 0.006497 -0.556039
9  0.000001 5.625576 -1.073926  1.570795 0.086294 1.570791
10  5.338982 -0.734242 -0.000029  -0.000000 0.000001 -0.029229
11  6.197228 0.232997 -0.000026  0.000000 -0.000044 0.100326
12  5.795674 -0.254150 -0.000278  0.000009 0.000052 0.194100
13  2.815575 -0.025129 0.000013  3.141588 -0.000020 0.372984
14  2.588265 0.997216 0.000042  -0.000004 0.000010 0.302763
15  -0.231739 0.701459 3.712229  -1.577189 -2.025535 -0.171569
16  5.532493 0.597144 -0.584292  -1.702108 0.058121 -0.685172
17  12.121807 -0.000000 -0.000001  -0.001267 0.044063 -0.395914
18  14.193281 0.000001 0.000003  1.573453 -0.106734 0.134901
19  5.698851 -0.410121 0.611114  0.119916 0.043440 -0.491687
20  2.810285 0.000001 0.000000  -0.030864 -0.089935 -0.561607
21  2.500324 0.000001 0.000001  0.000000 0.003076 -0.216389
22  5.076329 -0.463657 2.255294  0.374354 -0.023836 -0.464274
23  2.789351 -0.000001 0.000001  0.069008 -0.128810 -0.692747
24  1.804708 0.000001 -0.000001  -0.000002 0.002593 -0.244320
25  2.107970 -2.316336 2.352855  -1.564314 -0.324081 -0.484798
26  2.049990 -0.000004 -0.000001  -0.118202 -0.007804 0.109864
27  1.291401 0.000000 0.000001  0.000011 0.011266 0.362866
28  4.893167 -0.417919 -2.567149  -0.471315 0.161749 -0.572847
29  2.339789 -0.000003 -0.000000  -0.122731 0.204772 -0.495369
30  1.654036 0.000000 0.000000  -0.000006 0.004979 -0.244270
31  5.516239 -0.788999 -1.161416  -0.147067 0.025713 -0.501609
32  2.377277 0.000001 -0.000002  -0.089518 0.037301 -0.602830
33  2.165986 -0.000001 -0.000001  0.000000 0.007356 -0.430826
34  -0.231688 0.701463 -3.712231  1.567159 2.023839 -0.181982
35  5.530751 0.587480 0.609938  1.701586 -0.061228 -0.687057
36  12.121791 -0.000000 -0.000003  0.000473 -0.042544 -0.396071
37  14.193327 -0.000000 0.000003  -1.563667 0.106377 0.130253
38  5.706195 -0.410599 -0.536821  -0.109537 -0.057629 -0.491109
39  2.810350 0.000000 -0.000000  0.029661 0.084459 -0.562383
40  2.500295 -0.000000 -0.000001  -0.000001 -0.004460 -0.216349
41  5.104480 -0.475351 -2.188288  -0.370387 0.009655 -0.463707
42  2.789338 0.000003 0.000000  -0.059558 0.126091 -0.693170
43  1.804701 -0.000003 -0.000001  0.000003 -0.004203 -0.244312
44  2.138504 -2.330493 -2.310869  1.806625 0.309894 -0.484211
45  2.049996 -0.000001 0.000001  0.176721 0.033869 0.104840
46  1.291430 -0.000000 0.000000  -0.000005 -0.009622 0.362884
47  4.860801 -0.397873 2.631070  0.474848 -0.175880 -0.572514
48  2.339707 0.000000 0.000002  0.125598 -0.205817 -0.494896
49  1.654017 0.000001 -0.000001  0.000005 -0.006133 -0.244287
50  5.501599 -0.777866 1.235746  0.143645 -0.039900 -0.501052
51  2.377288 0.000000 0.000001  0.082207 -0.035223 -0.602938
52  2.165989 0.000002 0.000000  0.000005 -0.009661 -0.430790
end
